*# tp1

# I. Self-footprinting

##    host os

Pour accéder aux informations systèmes on utlise la commande ``systeminfo``.

```
S C:\Users\33785> systeminfo

Nom de l’hôte:                              LAPTOP-6AO987H5
Nom du système d’exploitation:              Microsoft Windows 10 Famille
Version du système:                         10.0.18363 N/A version 18363
Fabricant du système d’exploitation:        Microsoft Corporation
Configuration du système d’exploitation:    Station de travail autonome
Type de version du système d’exploitation:  Multiprocessor Free
Propriétaire enregistré:                    33785224776
Organisation enregistrée:                   N/A
Identificateur de produit:                  00325-81696-89494-AAOEM
Date d’installation originale:              06/07/2020, 14:46:24
Heure de démarrage du système:              06/10/2020, 08:38:08
Fabricant du système:                       ASUSTeK COMPUTER INC.
Modèle du système:                          VivoBook_ASUSLaptop X570DD_D570DD
Type du système:                            x64-based PC
Processeur(s):                              1 processeur(s) installé(s).
                                            [01] : AMD64 Family 23 Model 24 Stepping 1 AuthenticAMD ~2100 MHz
Version du BIOS:                            American Megatrends Inc. X570DD.302, 24/10/2019
Répertoire Windows:                         C:\Windows
Répertoire système:                         C:\Windows\system32
Périphérique d’amorçage:                    \Device\HarddiskVolume1
Option régionale du système:                fr;Français (France)
Paramètres régionaux d’entrée:              fr;Français (France)
Fuseau horaire:                             (UTC+01:00) Bruxelles, Copenhague, Madrid, Paris
Mémoire physique totale:                    6 091 Mo
Mémoire physique disponible:                2 329 Mo
Mémoire virtuelle : taille maximale:        16 930 Mo
Mémoire virtuelle : disponible:             10 097 Mo
Mémoire virtuelle : en cours d’utilisation: 6 833 Mo
[...]
```

Pour les  informarions relatives à la ram on utilise la commande ```Get-CimInstance win32_physicalmemory```

```
PS C:\Users\33785> Get-CimInstance win32_physicalmemory


Caption              : Mémoire physique
Description          : Mémoire physique
InstallDate          :
Name                 : Mémoire physique
Status               :
CreationClassName    : Win32_PhysicalMemory
Manufacturer         : Micron Technology
Model                :
OtherIdentifyingInfo :
PartNumber           : 8ATF1G64HZ-2G6E1
PoweredOn            :
SerialNumber         : F06D4256
SKU                  :
Tag                  : Physical Memory 1
Version              :
HotSwappable         :
Removable            :
Replaceable          :
FormFactor           : 12
BankLabel            : P0 CHANNEL B
Capacity             : 8589934592
DataWidth            : 64
[...]
```

## devices


pour le modèle de processeur ``` Get-WmiObject Win32_Processor```

```
PS C:\Users\33785> Get-WmiObject Win32_Processor

Caption           : AMD64 Family 23 Model 24 Stepping 1
DeviceID          : CPU0
Manufacturer      : AuthenticAMD
MaxClockSpeed     : 2100
Name              : AMD Ryzen 5 3500U with Radeon Vega 
[...]
```
pour son nombre de coeurs ```WMIC CPU Get DeviceID,NumberOfCores,NumberOfLogicalProcessors```

```
PS C:\Users\33785> WMIC CPU Get DeviceID,NumberOfCores,NumberOfLogicalProcessors
DeviceID  NumberOfCores  NumberOfLogicalProcessors
CPU0      4              8
```

Je n'ai pas réussi à triuver les infos relatives au trackpad

pour les infos des cartes garphiques
``` 
Get-WmiObject Win32_VideoController | Select description,driverversion
```

```
PS C:\Users\33785> Get-WmiObject Win32_VideoController | Select description,driverversion

description                    driverversion
-----------                    -------------
AMD Radeon(TM) Vega 8 Graphics 26.20.11016.6002
NVIDIA GeForce GTX 1050        26.21.14.4294
```

pour obtenir les infos du disque dur on utilise
```
 Get-Disk
```
```
PS C:\Users\33785> Get-Disk

Number Friendly Name                      
                                         
------ -------------                 
0      WDC PC SN520 SDAPNUW-512G-1202
[...]
```

Pour voir les partitons du disque on utilise la commande 
```
Get-Partition
```

```
PS C:\Users\33785> Get-Partition


   DiskPath : \\?\scsi#disk&ven_nvme&prod_wdc_pc_sn520_sda#5&22f06d41&0&000000#{53f56307-b6bf-11d0-94f2-00a0c91efb8b}

PartitionNumber  DriveLetter Offset                                                                                                   Size Type
---------------  ----------- ------                                                                                                   ---- ----
1                            1048576                                                                                                260 MB System
2                            273678336                                                                                               16 MB Reserved
3                C           290455552                                                                                           475.59 GB Basic
4                            510956404736                                                                                          1.07 GB Recovery
```

pour savoir les systèmes de fichier utilisés on utilise la commande ``` Get-Volume``` 

```
PS C:\Users\33785> Get-Volume

DriveLetter FriendlyName FileSystemType DriveType HealthStatus OperationalStatus SizeRemaining      Size
----------- ------------ -------------- --------- ------------ ----------------- -------------      ----
            RECOVERY     NTFS           Fixed     Healthy      OK                    142.84 MB   1.07 GB
C           OS           NTFS           Fixed     Healthy      OK                    371.48 GB 475.59 GB
```
*les roles des partitons:
** 1 : elle sert à stocker les fichiers nécessaire au démarrage de windows
** 2 : elle sert de mémoire tampon pour certain processus windows
** 3 : elle sert au stockage de l'os et des données
** 4 : elle sert à stocker les backups de windows

# Users

Pour obtenir la liste des utilisateurs on utilise la commande ```Get-LocalUser```

```
PS C:\Users\33785> Get-LocalUser

Name               Enabled Description
----               ------- -----------
33785              True
Administrateur     False   Compte d’utilisateur d’administration
DefaultAccount     False   Compte utilisateur géré par le système.
Invité             False   Compte d’utilisateur invité
WDAGUtilityAccount False   Compte d’utilisateur géré et utilisé par le système pour les scénarios Windows Defender A...
```

Après recherche il semble que le compte full admin soit le compte "Administrateur"

# Processus

Pour obtenir la lise des processus on utilise la commande ```tasklist```

```
PS C:\Users\33785> tasklist

Nom de l’image                 PID Nom de la sessio Numéro de s Utilisation
========================= ======== ================ =========== ============
System Idle Process              0 Services                   0         8 Ko
System                           4 Services                   0     6 852 Ko
Registry                       120 Services                   0    43 328 Ko
smss.exe                       460 Services                   0     1 124 Ko
csrss.exe                      600 Services                   0     5 780 Ko
wininit.exe                    740 Services                   0     7 092 Ko
services.exe                   880 Services                   0     8 728 Ko
lsass.exe                      888 Services                   0    20 600 Ko
svchost.exe                   1020 Services                   0     3 808 Ko
svchost.exe                     88 Services                   0    33 720 Ko
fontdrvhost.exe                480 Services                   0     3 028 Ko
svchost.exe                    808 Services                   0    16 896 Ko
svchost.exe                   1064 Services                   0     8 452 Ko
svchost.exe                   1244 Services                   0     9 992 Ko
svchost.exe                   1280 Services                   0    11 772 Ko
svchost.exe                   1300 Services                   0    15 344 Ko
svchost.exe                   1344 Services                   0     8 284 Ko
svchost.exe                   1420 Services                   0    11 996 Ko
svchost.exe                   1428 Services                   0     5 800 Ko
svchost.exe                   1540 Services                   0    15 352 Ko
svchost.exe                   1644 Services                   0    10 252 Ko
svchost.exe                   1676 Services                   0    10 136 Ko
svchost.exe                   1776 Services                   0     6 800 Ko
NVDisplay.Container.exe       1832 Services                   0    14 052 Ko
taskhostw.exe                 1864 Services                   0    42 044 Ko
svchost.exe                   1884 Services                   0     7 332 Ko
svchost.exe                   1968 Services                   0    11 080 Ko
svchost.exe                   1084 Services                   0    16 388 Ko
svchost.exe                   1060 Services                   0    11 940 Ko
atiesrxx.exe                  1224 Services                   0     5 904 Ko
svchost.exe                   2076 Services                   0     8 076 Ko
svchost.exe                   2136 Services                   0     8 784 Ko
svchost.exe                   2300 Services                   0    13 692 Ko
svchost.exe                   2308 Services                   0     5 652 Ko
svchost.exe                   2316 Services                   0     6 688 Ko
Memory Compression            2408 Services                   0   174 104 Ko
svchost.exe                   2448 Services                   0     7 596 Ko
svchost.exe                   2472 Services                   0     7 492 Ko
svchost.exe                   2480 Services                   0     7 568 Ko
svchost.exe                   2568 Services                   0    14 252 Ko
svchost.exe                   2728 Services                   0     6 380 Ko
svchost.exe                   2736 Services                   0     9 240 Ko
svchost.exe                   2860 Services                   0     9 428 Ko
svchost.exe                   2936 Services                   0    19 176 Ko
svchost.exe                   2996 Services                   0    13 512 Ko
AsusOptimization.exe          3008 Services                   0     5 784 Ko
spoolsv.exe                   3088 Services                   0    13 200 Ko
svchost.exe                   3160 Services                   0    53 136 Ko
svchost.exe                   3176 Services                   0    14 364 Ko
svchost.exe                   3232 Services                   0     7 596 Ko
svchost.exe                   3396 Services                   0     5 892 Ko
AsusLinkNear.exe              3516 Services                   0     9 808 Ko
AsusLinkRemote.exe            3524 Services                   0    11 776 Ko
AsusLinkNearExt.exe           3532 Services                   0     2 960 Ko
CxAudioSvc.exe                3540 Services                   0    23 684 Ko
AsusSystemDiagnosis.exe       3556 Services                   0     7 208 Ko
CxUIUSvc32.exe                3568 Services                   0     6 816 Ko
AsusSoftwareManager.exe       3576 Services                   0    20 220 Ko
AsusSystemAnalysis.exe        3584 Services                   0    11 256 Ko
svchost.exe                   3592 Services                   0     6 480 Ko
svchost.exe                   3600 Services                   0    13 304 Ko
CxAudMsg64.exe                3608 Services                   0     8 416 Ko
AdminService.exe              3616 Services                   0     6 948 Ko
CxUtilSvc.exe                 3648 Services                   0     7 484 Ko
svchost.exe                   3656 Services                   0    38 336 Ko
svchost.exe                   3664 Services                   0     7 204 Ko
svchost.exe                   3672 Services                   0    33 996 Ko
OfficeClickToRun.exe          3684 Services                   0    37 656 Ko
ICEsoundService64.exe         3692 Services                   0     6 292 Ko
svchost.exe                   3800 Services                   0    16 484 Ko
nvcontainer.exe               3924 Services                   0    32 004 Ko
QcomWlanSrvx64.exe            3932 Services                   0     5 224 Ko
svchost.exe                   3940 Services                   0     6 004 Ko
svchost.exe                   4000 Services                   0    10 276 Ko
svchost.exe                   4088 Services                   0     5 352 Ko
svchost.exe                   3124 Services                   0    21 564 Ko
MsMpEng.exe                    596 Services                   0   208 304 Ko
svchost.exe                   3632 Services                   0     8 544 Ko
svchost.exe                   4240 Services                   0     5 040 Ko
svchost.exe                   4268 Services                   0     6 604 Ko
svchost.exe                   4344 Services                   0    11 216 Ko
dasHost.exe                   4676 Services                   0     8 008 Ko
svchost.exe                   5036 Services                   0    11 404 Ko
WmiPrvSE.exe                  5580 Services                   0     8 808 Ko
svchost.exe                   5968 Services                   0     6 456 Ko
dasHost.exe                    904 Services                   0     3 976 Ko
svchost.exe                   1372 Services                   0    16 676 Ko
svchost.exe                   6424 Services                   0     7 396 Ko
svchost.exe                   7092 Services                   0    17 656 Ko
svchost.exe                   7388 Services                   0     9 904 Ko
NisSrv.exe                    8072 Services                   0    13 940 Ko
svchost.exe                   8184 Services                   0    10 964 Ko
SearchIndexer.exe             8228 Services                   0    46 012 Ko
svchost.exe                  10132 Services                   0    10 852 Ko
svchost.exe                  10104 Services                   0     7 948 Ko
svchost.exe                  11180 Services                   0    11 676 Ko
dllhost.exe                   6204 Services                   0     9 924 Ko
csrss.exe                     6796                            2     4 872 Ko
svchost.exe                   9476 Services                   0    15 296 Ko
svchost.exe                  10108 Services                   0     9 828 Ko
SecurityHealthService.exe    11920 Services                   0    13 684 Ko
svchost.exe                   9972 Services                   0    16 100 Ko
svchost.exe                  11672 Services                   0    11 616 Ko
svchost.exe                   5768 Services                   0    14 360 Ko
svchost.exe                   3080 Services                   0    16 676 Ko
svchost.exe                   4400 Services                   0    11 808 Ko
SgrmBroker.exe               11760 Services                   0     6 512 Ko
svchost.exe                  12600 Services                   0     8 892 Ko
svchost.exe                   3212 Services                   0     5 996 Ko
svchost.exe                   4108 Services                   0    10 148 Ko
GoogleCrashHandler.exe       15576 Services                   0     1 124 Ko
GoogleCrashHandler64.exe     12184 Services                   0     1 092 Ko
svchost.exe                  15288 Services                   0     8 628 Ko
svchost.exe                   5112 Services                   0     6 888 Ko
servicehost.exe              16812 Services                   0    22 000 Ko
csrss.exe                    10432 Console                    5     5 252 Ko
winlogon.exe                 16604 Console                    5     9 668 Ko
fontdrvhost.exe                964 Console                    5     3 808 Ko
dwm.exe                      19048 Console                    5    96 484 Ko
atieclxx.exe                 18276 Console                    5    10 140 Ko
NVDisplay.Container.exe      16756 Console                    5    29 568 Ko
unsecapp.exe                 15276 Services                   0     7 388 Ko
AsusOptimizationStartupTa     6448 Console                    5    13 508 Ko
nvcontainer.exe                208 Console                    5    21 884 Ko
sihost.exe                   16856 Console                    5    30 444 Ko
svchost.exe                  16724 Console                    5    23 312 Ko
svchost.exe                  10748 Console                    5    41 868 Ko
uihost.exe                    5220 Console                    5    16 568 Ko
taskhostw.exe                14480 Console                    5    16 648 Ko
explorer.exe                 18792 Console                    5   140 504 Ko
svchost.exe                  19252 Services                   0     7 516 Ko
NVIDIA Web Helper.exe         2976 Console                    5     3 016 Ko
conhost.exe                   4792 Console                    5     1 072 Ko
svchost.exe                  13344 Console                    5    20 548 Ko
StartMenuExperienceHost.e    18216 Console                    5    90 232 Ko
RuntimeBroker.exe             3700 Console                    5    26 604 Ko
SearchUI.exe                  2364 Console                    5   156 900 Ko
ctfmon.exe                    7596 Console                    5    14 648 Ko
RuntimeBroker.exe             7024 Console                    5    26 728 Ko
YourPhone.exe                12124 Console                    5       252 Ko
SettingSyncHost.exe          18068 Console                    5     6 088 Ko
LockApp.exe                   6332 Console                    5    44 644 Ko
RuntimeBroker.exe            17980 Console                    5    29 444 Ko
RuntimeBroker.exe             8996 Console                    5    15 848 Ko
RuntimeBroker.exe             9832 Console                    5    14 340 Ko
SecurityHealthSystray.exe    17868 Console                    5     8 348 Ko
jusched.exe                  13628 Console                    5     7 140 Ko
AsusOSD.exe                  14240 Console                    5    11 300 Ko
ApplicationFrameHost.exe     13184 Console                    5    34 596 Ko
WinStore.App.exe             16728 Console                    5        52 Ko
RuntimeBroker.exe            16676 Console                    5    23 800 Ko
taskhostw.exe                12784 Console                    5     7 640 Ko
SmartAudio.exe               18340 Console                    5    67 592 Ko
chrome.exe                   12860 Console                    5   204 572 Ko
chrome.exe                   18224 Console                    5     6 308 Ko
chrome.exe                    6464 Console                    5   205 144 Ko
chrome.exe                   13088 Console                    5    57 792 Ko
chrome.exe                    6172 Console                    5    29 348 Ko
chrome.exe                   16868 Console                    5    49 036 Ko
chrome.exe                   10460 Console                    5    55 024 Ko
chrome.exe                   12152 Console                    5    29 552 Ko
Discord.exe                  19460 Console                    5    65 152 Ko
Discord.exe                  19584 Console                    5   100 548 Ko
Discord.exe                  19616 Console                    5    26 632 Ko
Discord.exe                  20196 Console                    5    12 956 Ko
Discord.exe                  20264 Console                    5   165 600 Ko
Discord.exe                   7720 Console                    5    17 668 Ko
AsusSoftwareManagerAgent.    19948 Console                    5    31 452 Ko
Calculator.exe               13800 Console                    5        56 Ko
svchost.exe                  15948 Console                    5    11 348 Ko
chrome.exe                   18424 Console                    5    16 348 Ko
ShellExperienceHost.exe      12024 Console                    5    39 968 Ko
Microsoft.Photos.exe          8196 Console                    5       408 Ko
RuntimeBroker.exe             7180 Console                    5    28 728 Ko
svchost.exe                  17728 Services                   0     5 036 Ko
svchost.exe                  19344 Services                   0     9 800 Ko
WindowsInternal.Composabl     1616 Console                    5    44 652 Ko
RuntimeBroker.exe             6664 Console                    5     5 756 Ko
chrome.exe                   19352 Console                    5   101 440 Ko
chrome.exe                    3848 Console                    5   131 956 Ko
chrome.exe                   11360 Console                    5    44 248 Ko
dllhost.exe                  11420 Console                    5    11 712 Ko
CredentialEnrollmentManag     8100 Console                    5    13 320 Ko
SystemSettings.exe           12568 Console                    5     3 228 Ko
UserOOBEBroker.exe           16564 Console                    5     8 376 Ko
svchost.exe                  20432 Services                   0     8 188 Ko
chrome.exe                   15716 Console                    5    84 116 Ko
chrome.exe                   20468 Console                    5    49 548 Ko
chrome.exe                   17076 Console                    5   161 484 Ko
chrome.exe                   14796 Console                    5    40 336 Ko
chrome.exe                    6852 Console                    5    22 036 Ko
audiodg.exe                  20380 Services                   0    97 508 Ko
smartscreen.exe                420 Console                    5    22 328 Ko
powershell.exe               12376 Console                    5    72 764 Ko
conhost.exe                  16532 Console                    5    15 524 Ko
tasklist.exe                  7584 Console                    5     8 424 Ko
WmiPrvSE.exe                  1808 Services                   0     8 840 Ko
```

svchost.exe sert d'hôte pour les bibliothèques de fonctionnalités de liens dynamiques.

ApplicationFrameHost.exe est en charge de l'affichage des applications sous forme de fenètres.

RuntimeBroker.exe permert de gérer les autorisations des programmes windows store.

dllhost.exe sert pour l'exration d'images miniatures dans des fichiers par le système.

explorer.exe permet de naviguer à l'intérieur des fichiers stockés.


# network

Pour obtenir la liste des cartes réseau du pc, on utilise la commande ```Get-NetAdapter```

```
Name                      InterfaceDescription                    ifIndex Status       MacAddress             LinkSpeed
----                      --------------------                    ------- ------       ----------             ---------
Wi-Fi                     Qualcomm Atheros QCA9377 Wireless Ne...      12 Up           C0-E4-34-F2-F4-03     433.3 Mbps
Ethernet                  Realtek PCIe GbE Family Controller            7 Disconnected A8-5E-45-38-8D-FD          0 bps
```

La carte Wi-Fi permet au pc de pouvoir avoir accés aux réseaux Wi-Fi et la carte ethernet permet de connecter le pc à un résaux de façcon physique par l'intermédiaire d'un cable rj45.

nformations systèmes on utlise la commande ``systeminfo``.

```
S C:\Users\33785> systeminfo

Nom de l’hôte:                              LAPTOP-6AO987H5
Nom du système d’exploitation:              Microsoft Windows 10 Famille
Version du système:                         10.0.18363 N/A version 18363
Fabricant du système d’exploitation:        Microsoft Corporation
Configuration du système d’exploitation:    Station de travail autonome
Type de version du système d’exploitation:  Multiprocessor Free
Propriétaire enregistré:                    33785224776
Organisation enregistrée:                   N/A
Identificateur de produit:                  00325-81696-89494-AAOEM
Date d’installation originale:              06/07/2020, 14:46:24
Heure de démarrage du système:              06/10/2020, 08:38:08
Fabricant du système:                       ASUSTeK COMPUTER INC.
Modèle du système:                          VivoBook_ASUSLaptop X570DD_D570DD
Type du système:                            x64-based PC
Processeur(s):                              1 processeur(s) installé(s).
                                            [01] : AMD64 Family 23 Model 24 Stepping 1 AuthenticAMD ~2100 MHz
Version du BIOS:                            American Megatrends Inc. X570DD.302, 24/10/2019
Répertoire Windows:                         C:\Windows
Répertoire système:                         C:\Windows\system32
Périphérique d’amorçage:                    \Device\HarddiskVolume1
Option régionale du système:                fr;Français (France)
Paramètres régionaux d’entrée:              fr;Français (France)
Fuseau horaire:                             (UTC+01:00) Bruxelles, Copenhague, Madrid, Paris
Mémoire physique totale:                    6 091 Mo
Mémoire physique disponible:                2 329 Mo
Mémoire virtuelle : taille maximale:        16 930 Mo
Mémoire virtuelle : disponible:             10 097 Mo
Mémoire virtuelle : en cours d’utilisation: 6 833 Mo
[...]
```

Pour les  informarions relatives à la ram on utilise la commande ```Get-CimInstance win32_physicalmemory```

```
PS C:\Users\33785> Get-CimInstance win32_physicalmemory


Caption              : Mémoire physique
Description          : Mémoire physique
InstallDate          :
Name                 : Mémoire physique
Status               :
CreationClassName    : Win32_PhysicalMemory
Manufacturer         : Micron Technology
Model                :
OtherIdentifyingInfo :
PartNumber           : 8ATF1G64HZ-2G6E1
PoweredOn            :
SerialNumber         : F06D4256
SKU                  :
Tag                  : Physical Memory 1
Version              :
HotSwappable         :
Removable            :
Replaceable          :
FormFactor           : 12
BankLabel            : P0 CHANNEL B
Capacity             : 8589934592
DataWidth            : 64
[...]
```

## devices


pour le modèle de processeur ``` Get-WmiObject Win32_Processor```

```
PS C:\Users\33785> Get-WmiObject Win32_Processor

Caption           : AMD64 Family 23 Model 24 Stepping 1
DeviceID          : CPU0
Manufacturer      : AuthenticAMD
MaxClockSpeed     : 2100
Name              : AMD Ryzen 5 3500U with Radeon Vega 
[...]
```
pour son nombre de coeurs ```WMIC CPU Get DeviceID,NumberOfCores,NumberOfLogicalProcessors```

```
PS C:\Users\33785> WMIC CPU Get DeviceID,NumberOfCores,NumberOfLogicalProcessors
DeviceID  NumberOfCores  NumberOfLogicalProcessors
CPU0      4              8
```

Je n'ai pas réussi à triuver les infos relatives au trackpad

pour les infos des cartes garphiques
``` 
Get-WmiObject Win32_VideoController | Select description,driverversion
```

```
PS C:\Users\33785> Get-WmiObject Win32_VideoController | Select description,driverversion

description                    driverversion
-----------                    -------------
AMD Radeon(TM) Vega 8 Graphics 26.20.11016.6002
NVIDIA GeForce GTX 1050        26.21.14.4294
```

pour obtenir les infos du disque dur on utilise
```
 Get-Disk
```
```
PS C:\Users\33785> Get-Disk

Number Friendly Name                      
                                         
------ -------------                 
0      WDC PC SN520 SDAPNUW-512G-1202
[...]
```

Pour voir les partitons du disque on utilise la commande 
```
Get-Partition
```

```
PS C:\Users\33785> Get-Partition


   DiskPath : \\?\scsi#disk&ven_nvme&prod_wdc_pc_sn520_sda#5&22f06d41&0&000000#{53f56307-b6bf-11d0-94f2-00a0c91efb8b}

PartitionNumber  DriveLetter Offset                                                                                                   Size Type
---------------  ----------- ------                                                                                                   ---- ----
1                            1048576                                                                                                260 MB System
2                            273678336                                                                                               16 MB Reserved
3                C           290455552                                                                                           475.59 GB Basic
4                            510956404736                                                                                          1.07 GB Recovery
```

pour savoir les systèmes de fichier utilisés on utilise la commande ``` Get-Volume``` 

```
PS C:\Users\33785> Get-Volume

DriveLetter FriendlyName FileSystemType DriveType HealthStatus OperationalStatus SizeRemaining      Size
----------- ------------ -------------- --------- ------------ ----------------- -------------      ----
            RECOVERY     NTFS           Fixed     Healthy      OK                    142.84 MB   1.07 GB
C           OS           NTFS           Fixed     Healthy      OK                    371.48 GB 475.59 GB
```
* les roles des partitons:
 * 1 : elle sert à stocker les fichiers nécessaire au démarrage de windows
 * 2 : elle sert de mémoire tampon pour certain processus windows
 * 3 : elle sert au stockage de l'os et des données
 * 4 : elle sert à stocker les backups de windows

# Users

Pour obtenir la liste des utilisateurs on utilise la commande ```Get-LocalUser```

```
PS C:\Users\33785> Get-LocalUser

Name               Enabled Description
----               ------- -----------
33785              True
Administrateur     False   Compte d’utilisateur d’administration
DefaultAccount     False   Compte utilisateur géré par le système.
Invité             False   Compte d’utilisateur invité
WDAGUtilityAccount False   Compte d’utilisateur géré et utilisé par le système pour les scénarios Windows Defender A...
```

Après recherche il semble que le compte full admin soit le compte "Administrateur"

# Processus

Pour obtenir la lise des processus on utilise la commande ```tasklist```

```
PS C:\Users\33785> tasklist

Nom de l’image                 PID Nom de la sessio Numéro de s Utilisation
========================= ======== ================ =========== ============
System Idle Process              0 Services                   0         8 Ko
System                           4 Services                   0     6 852 Ko
Registry                       120 Services                   0    43 328 Ko
smss.exe                       460 Services                   0     1 124 Ko
csrss.exe                      600 Services                   0     5 780 Ko
wininit.exe                    740 Services                   0     7 092 Ko
services.exe                   880 Services                   0     8 728 Ko
lsass.exe                      888 Services                   0    20 600 Ko
svchost.exe                   1020 Services                   0     3 808 Ko
svchost.exe                     88 Services                   0    33 720 Ko
fontdrvhost.exe                480 Services                   0     3 028 Ko
svchost.exe                    808 Services                   0    16 896 Ko
svchost.exe                   1064 Services                   0     8 452 Ko
svchost.exe                   1244 Services                   0     9 992 Ko
svchost.exe                   1280 Services                   0    11 772 Ko
svchost.exe                   1300 Services                   0    15 344 Ko
svchost.exe                   1344 Services                   0     8 284 Ko
svchost.exe                   1420 Services                   0    11 996 Ko
svchost.exe                   1428 Services                   0     5 800 Ko
svchost.exe                   1540 Services                   0    15 352 Ko
svchost.exe                   1644 Services                   0    10 252 Ko
svchost.exe                   1676 Services                   0    10 136 Ko
svchost.exe                   1776 Services                   0     6 800 Ko
NVDisplay.Container.exe       1832 Services                   0    14 052 Ko
taskhostw.exe                 1864 Services                   0    42 044 Ko
svchost.exe                   1884 Services                   0     7 332 Ko
svchost.exe                   1968 Services                   0    11 080 Ko
svchost.exe                   1084 Services                   0    16 388 Ko
svchost.exe                   1060 Services                   0    11 940 Ko
atiesrxx.exe                  1224 Services                   0     5 904 Ko
svchost.exe                   2076 Services                   0     8 076 Ko
svchost.exe                   2136 Services                   0     8 784 Ko
svchost.exe                   2300 Services                   0    13 692 Ko
svchost.exe                   2308 Services                   0     5 652 Ko
svchost.exe                   2316 Services                   0     6 688 Ko
Memory Compression            2408 Services                   0   174 104 Ko
svchost.exe                   2448 Services                   0     7 596 Ko
svchost.exe                   2472 Services                   0     7 492 Ko
svchost.exe                   2480 Services                   0     7 568 Ko
svchost.exe                   2568 Services                   0    14 252 Ko
svchost.exe                   2728 Services                   0     6 380 Ko
svchost.exe                   2736 Services                   0     9 240 Ko
svchost.exe                   2860 Services                   0     9 428 Ko
svchost.exe                   2936 Services                   0    19 176 Ko
svchost.exe                   2996 Services                   0    13 512 Ko
AsusOptimization.exe          3008 Services                   0     5 784 Ko
spoolsv.exe                   3088 Services                   0    13 200 Ko
svchost.exe                   3160 Services                   0    53 136 Ko
svchost.exe                   3176 Services                   0    14 364 Ko
svchost.exe                   3232 Services                   0     7 596 Ko
svchost.exe                   3396 Services                   0     5 892 Ko
AsusLinkNear.exe              3516 Services                   0     9 808 Ko
AsusLinkRemote.exe            3524 Services                   0    11 776 Ko
AsusLinkNearExt.exe           3532 Services                   0     2 960 Ko
CxAudioSvc.exe                3540 Services                   0    23 684 Ko
AsusSystemDiagnosis.exe       3556 Services                   0     7 208 Ko
CxUIUSvc32.exe                3568 Services                   0     6 816 Ko
AsusSoftwareManager.exe       3576 Services                   0    20 220 Ko
AsusSystemAnalysis.exe        3584 Services                   0    11 256 Ko
svchost.exe                   3592 Services                   0     6 480 Ko
svchost.exe                   3600 Services                   0    13 304 Ko
CxAudMsg64.exe                3608 Services                   0     8 416 Ko
AdminService.exe              3616 Services                   0     6 948 Ko
CxUtilSvc.exe                 3648 Services                   0     7 484 Ko
svchost.exe                   3656 Services                   0    38 336 Ko
svchost.exe                   3664 Services                   0     7 204 Ko
svchost.exe                   3672 Services                   0    33 996 Ko
OfficeClickToRun.exe          3684 Services                   0    37 656 Ko
ICEsoundService64.exe         3692 Services                   0     6 292 Ko
svchost.exe                   3800 Services                   0    16 484 Ko
nvcontainer.exe               3924 Services                   0    32 004 Ko
QcomWlanSrvx64.exe            3932 Services                   0     5 224 Ko
svchost.exe                   3940 Services                   0     6 004 Ko
svchost.exe                   4000 Services                   0    10 276 Ko
svchost.exe                   4088 Services                   0     5 352 Ko
svchost.exe                   3124 Services                   0    21 564 Ko
MsMpEng.exe                    596 Services                   0   208 304 Ko
svchost.exe                   3632 Services                   0     8 544 Ko
svchost.exe                   4240 Services                   0     5 040 Ko
svchost.exe                   4268 Services                   0     6 604 Ko
svchost.exe                   4344 Services                   0    11 216 Ko
dasHost.exe                   4676 Services                   0     8 008 Ko
svchost.exe                   5036 Services                   0    11 404 Ko
WmiPrvSE.exe                  5580 Services                   0     8 808 Ko
svchost.exe                   5968 Services                   0     6 456 Ko
dasHost.exe                    904 Services                   0     3 976 Ko
svchost.exe                   1372 Services                   0    16 676 Ko
svchost.exe                   6424 Services                   0     7 396 Ko
svchost.exe                   7092 Services                   0    17 656 Ko
svchost.exe                   7388 Services                   0     9 904 Ko
NisSrv.exe                    8072 Services                   0    13 940 Ko
svchost.exe                   8184 Services                   0    10 964 Ko
SearchIndexer.exe             8228 Services                   0    46 012 Ko
svchost.exe                  10132 Services                   0    10 852 Ko
svchost.exe                  10104 Services                   0     7 948 Ko
svchost.exe                  11180 Services                   0    11 676 Ko
dllhost.exe                   6204 Services                   0     9 924 Ko
csrss.exe                     6796                            2     4 872 Ko
svchost.exe                   9476 Services                   0    15 296 Ko
svchost.exe                  10108 Services                   0     9 828 Ko
SecurityHealthService.exe    11920 Services                   0    13 684 Ko
svchost.exe                   9972 Services                   0    16 100 Ko
svchost.exe                  11672 Services                   0    11 616 Ko
svchost.exe                   5768 Services                   0    14 360 Ko
svchost.exe                   3080 Services                   0    16 676 Ko
svchost.exe                   4400 Services                   0    11 808 Ko
SgrmBroker.exe               11760 Services                   0     6 512 Ko
svchost.exe                  12600 Services                   0     8 892 Ko
svchost.exe                   3212 Services                   0     5 996 Ko
svchost.exe                   4108 Services                   0    10 148 Ko
GoogleCrashHandler.exe       15576 Services                   0     1 124 Ko
GoogleCrashHandler64.exe     12184 Services                   0     1 092 Ko
svchost.exe                  15288 Services                   0     8 628 Ko
svchost.exe                   5112 Services                   0     6 888 Ko
servicehost.exe              16812 Services                   0    22 000 Ko
csrss.exe                    10432 Console                    5     5 252 Ko
winlogon.exe                 16604 Console                    5     9 668 Ko
fontdrvhost.exe                964 Console                    5     3 808 Ko
dwm.exe                      19048 Console                    5    96 484 Ko
atieclxx.exe                 18276 Console                    5    10 140 Ko
NVDisplay.Container.exe      16756 Console                    5    29 568 Ko
unsecapp.exe                 15276 Services                   0     7 388 Ko
AsusOptimizationStartupTa     6448 Console                    5    13 508 Ko
nvcontainer.exe                208 Console                    5    21 884 Ko
sihost.exe                   16856 Console                    5    30 444 Ko
svchost.exe                  16724 Console                    5    23 312 Ko
svchost.exe                  10748 Console                    5    41 868 Ko
uihost.exe                    5220 Console                    5    16 568 Ko
taskhostw.exe                14480 Console                    5    16 648 Ko
explorer.exe                 18792 Console                    5   140 504 Ko
svchost.exe                  19252 Services                   0     7 516 Ko
NVIDIA Web Helper.exe         2976 Console                    5     3 016 Ko
conhost.exe                   4792 Console                    5     1 072 Ko
svchost.exe                  13344 Console                    5    20 548 Ko
StartMenuExperienceHost.e    18216 Console                    5    90 232 Ko
RuntimeBroker.exe             3700 Console                    5    26 604 Ko
SearchUI.exe                  2364 Console                    5   156 900 Ko
ctfmon.exe                    7596 Console                    5    14 648 Ko
RuntimeBroker.exe             7024 Console                    5    26 728 Ko
YourPhone.exe                12124 Console                    5       252 Ko
SettingSyncHost.exe          18068 Console                    5     6 088 Ko
LockApp.exe                   6332 Console                    5    44 644 Ko
RuntimeBroker.exe            17980 Console                    5    29 444 Ko
RuntimeBroker.exe             8996 Console                    5    15 848 Ko
RuntimeBroker.exe             9832 Console                    5    14 340 Ko
SecurityHealthSystray.exe    17868 Console                    5     8 348 Ko
jusched.exe                  13628 Console                    5     7 140 Ko
AsusOSD.exe                  14240 Console                    5    11 300 Ko
ApplicationFrameHost.exe     13184 Console                    5    34 596 Ko
WinStore.App.exe             16728 Console                    5        52 Ko
RuntimeBroker.exe            16676 Console                    5    23 800 Ko
taskhostw.exe                12784 Console                    5     7 640 Ko
SmartAudio.exe               18340 Console                    5    67 592 Ko
chrome.exe                   12860 Console                    5   204 572 Ko
chrome.exe                   18224 Console                    5     6 308 Ko
chrome.exe                    6464 Console                    5   205 144 Ko
chrome.exe                   13088 Console                    5    57 792 Ko
chrome.exe                    6172 Console                    5    29 348 Ko
chrome.exe                   16868 Console                    5    49 036 Ko
chrome.exe                   10460 Console                    5    55 024 Ko
chrome.exe                   12152 Console                    5    29 552 Ko
Discord.exe                  19460 Console                    5    65 152 Ko
Discord.exe                  19584 Console                    5   100 548 Ko
Discord.exe                  19616 Console                    5    26 632 Ko
Discord.exe                  20196 Console                    5    12 956 Ko
Discord.exe                  20264 Console                    5   165 600 Ko
Discord.exe                   7720 Console                    5    17 668 Ko
AsusSoftwareManagerAgent.    19948 Console                    5    31 452 Ko
Calculator.exe               13800 Console                    5        56 Ko
svchost.exe                  15948 Console                    5    11 348 Ko
chrome.exe                   18424 Console                    5    16 348 Ko
ShellExperienceHost.exe      12024 Console                    5    39 968 Ko
Microsoft.Photos.exe          8196 Console                    5       408 Ko
RuntimeBroker.exe             7180 Console                    5    28 728 Ko
svchost.exe                  17728 Services                   0     5 036 Ko
svchost.exe                  19344 Services                   0     9 800 Ko
WindowsInternal.Composabl     1616 Console                    5    44 652 Ko
RuntimeBroker.exe             6664 Console                    5     5 756 Ko
chrome.exe                   19352 Console                    5   101 440 Ko
chrome.exe                    3848 Console                    5   131 956 Ko
chrome.exe                   11360 Console                    5    44 248 Ko
dllhost.exe                  11420 Console                    5    11 712 Ko
CredentialEnrollmentManag     8100 Console                    5    13 320 Ko
SystemSettings.exe           12568 Console                    5     3 228 Ko
UserOOBEBroker.exe           16564 Console                    5     8 376 Ko
svchost.exe                  20432 Services                   0     8 188 Ko
chrome.exe                   15716 Console                    5    84 116 Ko
chrome.exe                   20468 Console                    5    49 548 Ko
chrome.exe                   17076 Console                    5   161 484 Ko
chrome.exe                   14796 Console                    5    40 336 Ko
chrome.exe                    6852 Console                    5    22 036 Ko
audiodg.exe                  20380 Services                   0    97 508 Ko
smartscreen.exe                420 Console                    5    22 328 Ko
powershell.exe               12376 Console                    5    72 764 Ko
conhost.exe                  16532 Console                    5    15 524 Ko
tasklist.exe                  7584 Console                    5     8 424 Ko
WmiPrvSE.exe                  1808 Services                   0     8 840 Ko
```

svchost.exe sert d'hôte pour les bibliothèques de fonctionnalités de liens dynamiques.

ApplicationFrameHost.exe est en charge de l'affichage des applications sous forme de fenètres.

RuntimeBroker.exe permert de gérer les autorisations des programmes windows store.

dllhost.exe sert pour l'exration d'images miniatures dans des fichiers par le système.

explorer.exe permet de naviguer à l'intérieur des fichiers stockés.


# network

Pour obtenir la liste des cartes réseau du pc, on utilise la commande ```Get-NetAdapter```

```
Name                      InterfaceDescription                    ifIndex Status       MacAddress             LinkSpeed
----                      --------------------                    ------- ------       ----------             ---------
Wi-Fi                     Qualcomm Atheros QCA9377 Wireless Ne...      12 Up           C0-E4-34-F2-F4-03     433.3 Mbps
Ethernet                  Realtek PCIe GbE Family Controller            7 Disconnected A8-5E-45-38-8D-FD          0 bps
```

La carte Wi-Fi permet au pc de pouvoir avoir accés aux réseaux Wi-Fi et la carte ethernet permet de connecter le pc à un résaux de façcon physique par l'intermédiaire d'un cable rj45.

Pour obtenir la liste des ports TCP et UDP en utilisation ainsi que les programmes tournant derrières ces ports on utilise la commande ``` netstat -a -b ```

```
PS C:\Windows\system32> netstat -a -b

Connexions actives

  Proto  Adresse locale         Adresse distante       État
  TCP    0.0.0.0:135            LAPTOP-6AO987H5:0      LISTENING
  RpcSs
 [svchost.exe]
  TCP    0.0.0.0:445            LAPTOP-6AO987H5:0      LISTENING
 Impossible d’obtenir les informations de propriétaire
  TCP    0.0.0.0:2869           LAPTOP-6AO987H5:0      LISTENING
 Impossible d’obtenir les informations de propriétaire
  TCP    0.0.0.0:5040           LAPTOP-6AO987H5:0      LISTENING
  CDPSvc
 [svchost.exe]
  TCP    0.0.0.0:7680           LAPTOP-6AO987H5:0      LISTENING
 Impossible d’obtenir les informations de propriétaire
  TCP    0.0.0.0:49664          LAPTOP-6AO987H5:0      LISTENING
 [lsass.exe]
  TCP    0.0.0.0:49665          LAPTOP-6AO987H5:0      LISTENING
 Impossible d’obtenir les informations de propriétaire
  TCP    0.0.0.0:49666          LAPTOP-6AO987H5:0      LISTENING
  EventLog
 [svchost.exe]
  TCP    0.0.0.0:49667          LAPTOP-6AO987H5:0      LISTENING
  Schedule
 [svchost.exe]
  TCP    0.0.0.0:49668          LAPTOP-6AO987H5:0      LISTENING
 [spoolsv.exe]
  TCP    0.0.0.0:49670          LAPTOP-6AO987H5:0      LISTENING
 Impossible d’obtenir les informations de propriétaire
  TCP    127.0.0.1:6463         LAPTOP-6AO987H5:0      LISTENING
 [Discord.exe]
  TCP    127.0.0.1:49689        LAPTOP-6AO987H5:0      LISTENING
 [NVIDIA Web Helper.exe]
  TCP    127.0.0.1:49708        LAPTOP-6AO987H5:0      LISTENING
 [SmartAudio.exe]
  TCP    127.0.0.1:55009        LAPTOP-6AO987H5:65001  ESTABLISHED
 [nvcontainer.exe]
  TCP    127.0.0.1:65001        LAPTOP-6AO987H5:0      LISTENING
 [nvcontainer.exe]
  TCP    127.0.0.1:65001        LAPTOP-6AO987H5:55009  ESTABLISHED
 [nvcontainer.exe]
  TCP    192.168.1.32:139       LAPTOP-6AO987H5:0      LISTENING
 Impossible d’obtenir les informations de propriétaire
  TCP    192.168.1.32:55018     162.159.135.234:https  ESTABLISHED
 [Discord.exe]
  TCP    192.168.1.32:55047     40.67.251.132:https    ESTABLISHED
  WpnService
 [svchost.exe]
  TCP    192.168.1.32:55278     20.54.24.231:https     ESTABLISHED
 Impossible d’obtenir les informations de propriétaire
  TCP    192.168.1.32:55279     52.114.132.91:https    TIME_WAIT
  TCP    [::]:135               LAPTOP-6AO987H5:0      LISTENING
  RpcSs
 [svchost.exe]
  TCP    [::]:445               LAPTOP-6AO987H5:0      LISTENING
 Impossible d’obtenir les informations de propriétaire
  TCP    [::]:2869              LAPTOP-6AO987H5:0      LISTENING
 Impossible d’obtenir les informations de propriétaire
  TCP    [::]:7680              LAPTOP-6AO987H5:0      LISTENING
 Impossible d’obtenir les informations de propriétaire
  TCP    [::]:49664             LAPTOP-6AO987H5:0      LISTENING
 [lsass.exe]
  TCP    [::]:49665             LAPTOP-6AO987H5:0      LISTENING
 Impossible d’obtenir les informations de propriétaire
  TCP    [::]:49666             LAPTOP-6AO987H5:0      LISTENING
  EventLog
 [svchost.exe]
  TCP    [::]:49667             LAPTOP-6AO987H5:0      LISTENING
  Schedule
 [svchost.exe]
  TCP    [::]:49668             LAPTOP-6AO987H5:0      LISTENING
 [spoolsv.exe]
  TCP    [::]:49670             LAPTOP-6AO987H5:0      LISTENING
 Impossible d’obtenir les informations de propriétaire
  TCP    [2a01:cb19:798:8700:6876:961e:3574:6ef4]:55215  [2406:da14:88d:a102:98e7:a51a:ff3a:dcc1]:https  TIME_WAIT
  UDP    0.0.0.0:500            *:*
  IKEEXT
 [svchost.exe]
  UDP    0.0.0.0:3702           *:*
 [dashost.exe]
  UDP    0.0.0.0:3702           *:*
 [dashost.exe]
  UDP    0.0.0.0:4500           *:*
  IKEEXT
 [svchost.exe]
  UDP    0.0.0.0:5050           *:*
  CDPSvc
 [svchost.exe]
  UDP    0.0.0.0:5353           *:*
  Dnscache
 [svchost.exe]
  UDP    0.0.0.0:5355           *:*
  Dnscache
 [svchost.exe]
  UDP    0.0.0.0:53981          *:*
 [nvcontainer.exe]
  UDP    0.0.0.0:62286          *:*
 [dashost.exe]
  UDP    127.0.0.1:1900         *:*
  SSDPSRV
 [svchost.exe]
  UDP    127.0.0.1:10010        *:*
 [NVIDIA Web Helper.exe]
  UDP    127.0.0.1:49664        *:*
  iphlpsvc
 [svchost.exe]
  UDP    127.0.0.1:49669        *:*
 [nvcontainer.exe]
  UDP    127.0.0.1:63652        *:*
  SSDPSRV
 [svchost.exe]
  UDP    192.168.1.32:137       *:*
 Impossible d’obtenir les informations de propriétaire
  UDP    192.168.1.32:138       *:*
 Impossible d’obtenir les informations de propriétaire
  UDP    192.168.1.32:1900      *:*
  SSDPSRV
 [svchost.exe]
  UDP    192.168.1.32:5353      *:*
 [nvcontainer.exe]
  UDP    192.168.1.32:49252     *:*
  SSDPSRV
 [svchost.exe]
  UDP    [::]:500               *:*
  IKEEXT
 [svchost.exe]
  UDP    [::]:3702              *:*
 [dashost.exe]
  UDP    [::]:3702              *:*
 [dashost.exe]
  UDP    [::]:4500              *:*
  IKEEXT
 [svchost.exe]
  UDP    [::]:5353              *:*
  Dnscache
 [svchost.exe]
  UDP    [::]:5355              *:*
  Dnscache
 [svchost.exe]
  UDP    [::]:53982             *:*
 [nvcontainer.exe]
  UDP    [::]:62287             *:*
 [dashost.exe]
  UDP    [::1]:1900             *:*
  SSDPSRV
 [svchost.exe]
  UDP    [::1]:5353             *:*
 [nvcontainer.exe]
  UDP    [::1]:49251            *:*
  SSDPSRV
 [svchost.exe]
  UDP    [fe80::7c10:c269:b41b:79f1%12]:1900  *:*
  SSDPSRV
 [svchost.exe]
  UDP    [fe80::7c10:c269:b41b:79f1%12]:49250  *:*
  SSDPSRV
 [svchost.exe]
 ```
 
svchost.exe sert d'hôte pour les bibliothèques de fonctionnalités de liens dynamiques.

lsass.exe sert dans l'identification des utilisateurs.

nvcontainer.exe et  NVIDIA Web Helper.exe sont des programmes de NVIDIA qui sont requis pour le finctionnement de NVIDIA geforece game ready.

dashost.exe est une interface servant à la connexion et à l'appairage qu'il soit filaire ou non de plusieurs systèmes sous Windows.

spoolsv.exe permet de faciliter le fonctionnement des imprimantes et des fax.

SmartAudio.exe gère les dirvers audios et vidéos.



# II. Scripting

Je n'ai pas réussi cette partie cependant voici quand même les scripts que j'ai écrit : 

script 1 : 

```
#Fabio Garcia#
#Le 25/10/2020#
#Script permettant de récupérer quelques informations classiques sur un ordinateur#

Write-Output nom-ordinateur
[system.environment]::MachineName

Write-Output IP-principale
Get-NetIPConfiguration | Select-Object -Object IPv4Address

Write-Output OS-et-version 
get-ComputerInfo | Select-Object WindowsProductName,WindowsCurrentVersion

Write-Output date-et-heure-de-demarrage
get-ComputerInfo | Select-Object OsLastBootUpTime

Write-Output [Espace RAM utilisé :]
[int]$ramtotal = get-ComputerInfo | Select-Object OsTotalVisibleMemorySize
[int]$freeram = get-ComputerInfo | Select-Object OsFreePhysicalMemory
[int]$usedram = $ramtotal- $freeram
Write-Output [$usedram]

Write-Output Espace-RAM-dispo:
get-ComputerInfo | Select-Object  OsFreePhysicalMemory

Write-Output [Espace disque utilisé]
[int]$totalspace = Get-WmiObject Win32_logicaldisk | Select-Object Size
[int]$freesapce = Get-WmiObject Win32_logicaldisk | Select-Object FreeSpace
[int]$usedspace = $totalspace - $freesapce
Write-Output [$usedspace]

Write-Output Espace-disque-disponnible:
Get-WmiObject Win32_logicaldisk | Select-Object FreeSpace

Write-Output listes-des-users:
Get-LocalUser | Select-Object name

Write-Output ping-vers-8.8.8.8:
ping 8.8.8.8
```

script 2 : 






# III. Gestion de softs

Utiliser un gestionnaires de paquets présente plusieurs avantages : 
- la rapidité : tout se fait depuis un invite de commande,il n'y a donc pas besoin de se servir d'un navigateur internet.
- la sécurité : en passant par un gestionnaire de paquests on est sûr de ce que l'on télécharge et on évite donc les malwares.
- un gestionnaire de paquets installe tous les programmes nécesssaire au fonctionnement d'un logiciel.

En utilisant Chocolately on obtient : 

```
PS C:\Windows\system32> choco list
Chocolatey v0.10.15
therenamer 7.69.20160812 [Approved] Downloads cached for licensed users
Line6Monkey 1.72 [Approved] Downloads cached for licensed users
webextensionpack 1.6.51 [Approved] Downloads cached for licensed users
windowsphonedevelopertools 1.0 [Approved]
installwindowsimage.powershell 2009.5.11 [Approved]
autover 2.2.1.20160814 [Approved] Downloads cached for licensed users
xyplorerfree 17.00.0100 [Approved] Downloads cached for licensed users - Possibly broken for FOSS users (due to original download location changes by vendor)
dropkick 0.4.13.0 [Approved]
dropkick.core 0.4.13.0 [Approved]
junction-link-magic 2.0.3.20160815 [Approved] Downloads cached for licensed users
followmee 1.7.20160815 [Approved] Downloads cached for licensed users
windowstelnet 1.0.0
ignore-file 0.0.3 [Approved]
go-repo-utils 0.0.17 [Approved]
signcode.install 1.0.4 [Approved] - Possibly broken
brewtarget 2.3.0.20160816 [Approved] Downloads cached for licensed users
onedrivebully 1.2 [Approved]
android-insomnia-regular-font 1.0 [Approved]
gron 0.6.0 [Approved]
tfsSidekicks 2.4.0 - Possibly broken
sqlnotebook 0.6.0 [Approved] Downloads cached for licensed users
ChirpyVSI 2.0.0.4 - Possibly broken
backupper-server 5.3.0 [Approved] - Possibly broken
backupper-standard 5.3.0 [Approved] Downloads cached for licensed users
DarkRoom 0.8.1
0install.portable 2.15.1 [Approved]
imageanalyzer 1.38.4 [Approved]
GnuWin 0.6.3.1 - Possibly broken
DeleGate 9.9.7 [Approved]
0install.install 2.15.1 [Approved]
initool 0.9.0 [Approved] Downloads cached for licensed users
javadecompiler-gui 1.4.0.20180728 [Approved] Downloads cached for licensed users
atomicparsley 0.9.6 [Approved]
picassio 0.12.0 [Approved] Downloads cached for licensed users
vvvv-addonpack 36.1 [Approved] Downloads cached for licensed users
dotpeek.portable 10.0.2.1 [Approved] Downloads cached for licensed users - Possibly broken for FOSS users (due to original download location changes by vendor)
audioshell 2.3.6 [Approved] Downloads cached for licensed users
balsamiqmockups3 3.4.4 [Approved]
dotnet-verification-tool 4.6.01528.0 [Approved] Downloads cached for licensed users
real-netstat 3.1 [Approved] Downloads cached for licensed users
xboot 1.0.14 [Approved] Downloads cached for licensed users
aptana-studio 3.7.2 [Approved] Downloads cached for licensed users
ctags 5.8.1
hdtune 2.55.0.1 [Approved] Downloads cached for licensed users
viper4windows 1.0.5.1 [Approved] Downloads cached for licensed users
wavesurfer 1.8.84.20160822 [Approved] Downloads cached for licensed users
winhotkey 0.70.0.1 [Approved] Downloads cached for licensed users
openpht 1.8.0 [Approved] Downloads cached for licensed users
PomoTime 1.8
xnews 5.4.25 - Possibly broken
hydrairc 0.3.165.1
factor 0.97 [Approved] Downloads cached for licensed users
secure-file 1.0.0 [Approved] Downloads cached for licensed users - Possibly broken for FOSS users (due to original download location changes by vendor)
gitpad 1.2 [Approved]
cmdaliases 1.0.0.1
55 packages found.
```

```
PS C:\Windows\system32> choco source
Chocolatey v0.10.15
chocolatey - https://chocolatey.org/api/v2/ | Priority 0|Bypass Proxy - False|Self-Service - False|Admin Only - False.
```

# IV. Partage de fichiers

```
PS C:\Windows\system32> Get-SMBShare

Name   ScopeName Path       Description
----   --------- ----       -----------
ADMIN$ *         C:\Windows Administration à distance
C      *         C:\
C$     *         C:\        Partage par défaut
IPC$   *                    IPC distant


PS C:\Windows\system32> ssh root@192.168.120.50
root@192.168.120.50's password:
Last login: Mon Nov  9 12:18:54 2020 from 192.168.120.1
[root@localhost ~]# mkdir C:\VM
[root@localhost ~]# exit
logout
Connection to 192.168.120.50 closed.
PS C:\Windows\system32> Get-SMBShare

Name   ScopeName Path       Description
----   --------- ----       -----------
ADMIN$ *         C:\Windows Administration à distance
C      *         C:\
C$     *         C:\        Partage par défaut
IPC$   *                    IPC distant
VM     *         C:\VM


PS C:\Windows\system32> ssh root@192.168.120.50
root@192.168.120.50's password:
Last login: Mon Nov  9 12:22:07 2020 from 192.168.120.1
[root@localhost ~]# mount -t cifs -o username=33785,password=0403 //192.168.120.1/VM C:\VM
mount error(13): Permission denied
Refer to the mount.cifs(8) manual page (e.g. man mount.cifs)
[root@localhost ~]# mount -t cifs -o username=33785,password=42157228Zz! //192.168.120.1/VM C:\VM
[root@localhost ~]# ls
anaconda-ks.cfg  C:test  C:VM
[root@localhost ~]#
```